module gitlab.com/donomii/racketprogs/stalk

go 1.23.0

require (
	github.com/weaviate/weaviate v1.27.3
	gitlab.com/donomii/racketprogs v0.0.0-20241116010951-edac922f2589
	gitlab.com/donomii/weaviate-client v0.0.0-20241108135510-7d02cb239e1c
)

require (
	atomicgo.dev/cursor v0.2.0 // indirect
	atomicgo.dev/keyboard v0.2.9 // indirect
	atomicgo.dev/schedule v0.1.0 // indirect
	cloud.google.com/go v0.115.1 // indirect
	cloud.google.com/go/auth v0.9.4 // indirect
	cloud.google.com/go/auth/oauth2adapt v0.2.4 // indirect
	cloud.google.com/go/compute/metadata v0.5.1 // indirect
	cloud.google.com/go/iam v1.2.0 // indirect
	cloud.google.com/go/storage v1.43.0 // indirect
	github.com/Azure/azure-sdk-for-go/sdk/azcore v1.14.0 // indirect
	github.com/Azure/azure-sdk-for-go/sdk/internal v1.10.0 // indirect
	github.com/Azure/azure-sdk-for-go/sdk/storage/azblob v1.4.1 // indirect
	github.com/KimMachineGun/automemlimit v0.3.0 // indirect
	github.com/VividCortex/ewma v1.2.0 // indirect
	github.com/armon/go-metrics v0.4.1 // indirect
	github.com/asaskevich/govalidator v0.0.0-20230301143203-a9d515a09cc2 // indirect
	github.com/aws/aws-sdk-go v1.44.298 // indirect
	github.com/aws/aws-sdk-go-v2 v1.31.0 // indirect
	github.com/aws/aws-sdk-go-v2/aws/protocol/eventstream v1.6.5 // indirect
	github.com/aws/aws-sdk-go-v2/config v1.27.36 // indirect
	github.com/aws/aws-sdk-go-v2/credentials v1.17.34 // indirect
	github.com/aws/aws-sdk-go-v2/feature/ec2/imds v1.16.14 // indirect
	github.com/aws/aws-sdk-go-v2/internal/configsources v1.3.18 // indirect
	github.com/aws/aws-sdk-go-v2/internal/endpoints/v2 v2.6.18 // indirect
	github.com/aws/aws-sdk-go-v2/internal/ini v1.8.1 // indirect
	github.com/aws/aws-sdk-go-v2/service/bedrockruntime v1.17.0 // indirect
	github.com/aws/aws-sdk-go-v2/service/internal/accept-encoding v1.11.5 // indirect
	github.com/aws/aws-sdk-go-v2/service/internal/presigned-url v1.11.20 // indirect
	github.com/aws/aws-sdk-go-v2/service/sso v1.23.0 // indirect
	github.com/aws/aws-sdk-go-v2/service/ssooidc v1.27.0 // indirect
	github.com/aws/aws-sdk-go-v2/service/sts v1.31.0 // indirect
	github.com/aws/smithy-go v1.21.0 // indirect
	github.com/beorn7/perks v1.0.1 // indirect
	github.com/boltdb/bolt v1.3.1 // indirect
	github.com/buger/jsonparser v1.1.1 // indirect
	github.com/cenkalti/backoff/v4 v4.2.1 // indirect
	github.com/cespare/xxhash/v2 v2.3.0 // indirect
	github.com/cheggaaa/pb/v3 v3.1.4 // indirect
	github.com/cilium/ebpf v0.11.0 // indirect
	github.com/containerd/cgroups/v3 v3.0.2 // indirect
	github.com/containerd/console v1.0.3 // indirect
	github.com/coreos/go-oidc/v3 v3.10.0 // indirect
	github.com/coreos/go-systemd/v22 v22.5.0 // indirect
	github.com/cpuguy83/go-md2man/v2 v2.0.4 // indirect
	github.com/danaugrs/go-tsne v0.0.0-20200708172100-6b7d1d577fd3 // indirect
	github.com/davecgh/go-spew v1.1.1 // indirect
	github.com/dlclark/regexp2 v1.10.0 // indirect
	github.com/docker/go-units v0.5.0 // indirect
	github.com/donomii/goof v0.0.0-20230125141827-464a0fadad76 // indirect
	github.com/donomii/termbox-go v1.2.0 // indirect
	github.com/dustin/go-humanize v1.0.1 // indirect
	github.com/edsrzf/mmap-go v1.1.0 // indirect
	github.com/fatih/camelcase v1.0.0 // indirect
	github.com/fatih/color v1.17.0 // indirect
	github.com/felixge/httpsnoop v1.0.4 // indirect
	github.com/getsentry/sentry-go v0.29.0 // indirect
	github.com/go-ego/gse v0.80.2 // indirect
	github.com/go-ini/ini v1.67.0 // indirect
	github.com/go-jose/go-jose/v4 v4.0.1 // indirect
	github.com/go-logr/logr v1.4.2 // indirect
	github.com/go-logr/stdr v1.2.2 // indirect
	github.com/go-openapi/analysis v0.21.2 // indirect
	github.com/go-openapi/errors v0.20.3 // indirect
	github.com/go-openapi/jsonpointer v0.19.5 // indirect
	github.com/go-openapi/jsonreference v0.20.0 // indirect
	github.com/go-openapi/loads v0.21.1 // indirect
	github.com/go-openapi/runtime v0.24.2 // indirect
	github.com/go-openapi/spec v0.20.4 // indirect
	github.com/go-openapi/strfmt v0.21.3 // indirect
	github.com/go-openapi/swag v0.22.3 // indirect
	github.com/go-openapi/validate v0.21.0 // indirect
	github.com/goccy/go-json v0.10.3 // indirect
	github.com/godbus/dbus/v5 v5.1.0 // indirect
	github.com/golang-jwt/jwt/v4 v4.5.1 // indirect
	github.com/golang/groupcache v0.0.0-20210331224755-41bb18bfe9da // indirect
	github.com/golang/protobuf v1.5.4 // indirect
	github.com/google/btree v1.0.1 // indirect
	github.com/google/pprof v0.0.0-20240227163752-401108e1b7e7 // indirect
	github.com/google/s2a-go v0.1.8 // indirect
	github.com/google/uuid v1.6.0 // indirect
	github.com/googleapis/enterprise-certificate-proxy v0.3.4 // indirect
	github.com/googleapis/gax-go/v2 v2.13.0 // indirect
	github.com/gookit/color v1.5.4 // indirect
	github.com/grpc-ecosystem/go-grpc-middleware v1.4.0 // indirect
	github.com/hashicorp/errwrap v1.1.0 // indirect
	github.com/hashicorp/go-hclog v1.6.3 // indirect
	github.com/hashicorp/go-immutable-radix v1.3.1 // indirect
	github.com/hashicorp/go-msgpack/v2 v2.1.2 // indirect
	github.com/hashicorp/go-multierror v1.1.1 // indirect
	github.com/hashicorp/go-sockaddr v1.0.0 // indirect
	github.com/hashicorp/golang-lru v1.0.2 // indirect
	github.com/hashicorp/memberlist v0.5.1 // indirect
	github.com/hashicorp/raft v1.7.1 // indirect
	github.com/hashicorp/raft-boltdb/v2 v2.3.0 // indirect
	github.com/ikawaha/kagome-dict v1.1.0 // indirect
	github.com/ikawaha/kagome-dict-ko v0.2.1 // indirect
	github.com/ikawaha/kagome/v2 v2.9.11 // indirect
	github.com/jessevdk/go-flags v1.4.0 // indirect
	github.com/jmespath/go-jmespath v0.4.0 // indirect
	github.com/johnbellone/grpc-middleware-sentry v0.4.0 // indirect
	github.com/josharian/intern v1.0.0 // indirect
	github.com/karrick/godirwalk v1.15.3 // indirect
	github.com/kballard/go-shellquote v0.0.0-20180428030007-95032a82bc51 // indirect
	github.com/klauspost/compress v1.17.9 // indirect
	github.com/klauspost/cpuid/v2 v2.2.8 // indirect
	github.com/lanrat/extsort v1.0.2 // indirect
	github.com/lithammer/fuzzysearch v1.1.8 // indirect
	github.com/mailru/easyjson v0.7.7 // indirect
	github.com/mattn/go-colorable v0.1.13 // indirect
	github.com/mattn/go-isatty v0.0.20 // indirect
	github.com/mattn/go-runewidth v0.0.15 // indirect
	github.com/miekg/dns v1.1.31 // indirect
	github.com/minio/md5-simd v1.1.2 // indirect
	github.com/minio/minio-go/v7 v7.0.76 // indirect
	github.com/mitchellh/mapstructure v1.5.0 // indirect
	github.com/munnerz/goautoneg v0.0.0-20191010083416-a7dc8b61c822 // indirect
	github.com/nyaruka/phonenumbers v1.0.54 // indirect
	github.com/oklog/ulid v1.3.1 // indirect
	github.com/opencontainers/runtime-spec v1.1.0 // indirect
	github.com/pbnjay/memory v0.0.0-20210728143218-7b4eea64cf58 // indirect
	github.com/pkg/errors v0.9.1 // indirect
	github.com/pmezard/go-difflib v1.0.0 // indirect
	github.com/prometheus/client_golang v1.20.4 // indirect
	github.com/prometheus/client_model v0.6.1 // indirect
	github.com/prometheus/common v0.60.0 // indirect
	github.com/prometheus/procfs v0.15.1 // indirect
	github.com/pterm/pterm v0.12.79 // indirect
	github.com/rivo/uniseg v0.4.4 // indirect
	github.com/rs/cors v1.5.0 // indirect
	github.com/rs/xid v1.6.0 // indirect
	github.com/russross/blackfriday/v2 v2.1.0 // indirect
	github.com/sean-/seed v0.0.0-20170313163322-e2103e2c3529 // indirect
	github.com/sirupsen/logrus v1.9.3 // indirect
	github.com/spaolacci/murmur3 v1.1.0 // indirect
	github.com/stretchr/objx v0.5.2 // indirect
	github.com/stretchr/testify v1.9.0 // indirect
	github.com/tailor-inc/graphql v0.4.1 // indirect
	github.com/termie/go-shutil v0.0.0-20140729215957-bcacb06fecae // indirect
	github.com/urfave/cli/v2 v2.27.2 // indirect
	github.com/vcaesar/cedar v0.20.1 // indirect
	github.com/vmihailenco/msgpack/v5 v5.4.1 // indirect
	github.com/vmihailenco/tagparser/v2 v2.0.0 // indirect
	github.com/weaviate/contextionary v1.2.1 // indirect
	github.com/weaviate/fgprof v0.0.0-20241024091527-0000bf3ee8aa // indirect
	github.com/weaviate/s5cmd/v2 v2.0.1 // indirect
	github.com/weaviate/sroar v0.0.6 // indirect
	github.com/weaviate/tiktoken-go v0.0.2 // indirect
	github.com/willf/bitset v1.1.11 // indirect
	github.com/willf/bloom v2.0.3+incompatible // indirect
	github.com/xo/terminfo v0.0.0-20220910002029-abceb7e1c41e // indirect
	github.com/xrash/smetrics v0.0.0-20240312152122-5f08fbb34913 // indirect
	go.etcd.io/bbolt v1.3.11 // indirect
	go.mongodb.org/mongo-driver v1.14.0 // indirect
	go.opencensus.io v0.24.0 // indirect
	go.opentelemetry.io/contrib/instrumentation/google.golang.org/grpc/otelgrpc v0.54.0 // indirect
	go.opentelemetry.io/contrib/instrumentation/net/http/otelhttp v0.54.0 // indirect
	go.opentelemetry.io/otel v1.29.0 // indirect
	go.opentelemetry.io/otel/metric v1.29.0 // indirect
	go.opentelemetry.io/otel/trace v1.29.0 // indirect
	go.uber.org/mock v0.4.0 // indirect
	golang.org/x/crypto v0.27.0 // indirect
	golang.org/x/exp v0.0.0-20230713183714-613f0c0eb8a1 // indirect
	golang.org/x/net v0.29.0 // indirect
	golang.org/x/oauth2 v0.23.0 // indirect
	golang.org/x/sync v0.8.0 // indirect
	golang.org/x/sys v0.25.0 // indirect
	golang.org/x/term v0.24.0 // indirect
	golang.org/x/text v0.18.0 // indirect
	golang.org/x/time v0.6.0 // indirect
	gonum.org/v1/gonum v0.12.0 // indirect
	google.golang.org/api v0.198.0 // indirect
	google.golang.org/genproto v0.0.0-20240903143218-8af14fe29dc1 // indirect
	google.golang.org/genproto/googleapis/api v0.0.0-20240827150818-7e3bb234dfed // indirect
	google.golang.org/genproto/googleapis/rpc v0.0.0-20240903143218-8af14fe29dc1 // indirect
	google.golang.org/grpc v1.66.2 // indirect
	google.golang.org/protobuf v1.34.2 // indirect
	gopkg.in/yaml.v2 v2.4.0 // indirect
	gopkg.in/yaml.v3 v3.0.1 // indirect
)
