module dcbh

require (
	github.com/EngoEngine/ecs v1.0.5
	github.com/EngoEngine/engo v1.0.6 // indirect
	github.com/EngoEngine/gl v1.0.13
	github.com/EngoEngine/math v1.0.4
	github.com/Noofbiz/sdlMojaveFix v0.0.1
	github.com/Noofbiz/tmx v0.2.0
	github.com/atotto/clipboard v0.1.4 // indirect
	github.com/donomii/glim v0.0.0-20220831181445-73b1333cbe17 // indirect
	github.com/donomii/goof v0.0.0-20220710235748-6992baa52a0b // indirect
	github.com/donomii/sceneCamera v0.0.0-20210915211205-bba77a1dffbd // indirect
	github.com/go-bindata/go-bindata v3.1.2+incompatible
	github.com/go-gl/gl v0.0.0-20211210172815-726fda9656d6 // indirect
	github.com/go-gl/glfw/v3.3/glfw v0.0.0-20211213063430-748e38ca8aec
	github.com/go-gl/mathgl v1.0.0
	github.com/golang/freetype v0.0.0-20170609003504-e2365dfdc4a0
	github.com/hajimehoshi/go-mp3 v0.3.2
	github.com/hajimehoshi/oto v0.7.1
	github.com/jfreymuth/oggvorbis v1.0.3
	github.com/kardianos/osext v0.0.0-20190222173326-2bc1f35cddc0 // indirect
	github.com/kr/pretty v0.2.0 // indirect
	github.com/kr/text v0.2.0 // indirect
	github.com/srwiley/oksvg v0.0.0-20210519022825-9fc0c575d5fe
	github.com/srwiley/rasterx v0.0.0-20210519020934-456a8d69b780
	github.com/stretchr/testify v1.7.0
	github.com/veandco/go-sdl2 v0.4.14
	github.com/vulkan-go/glfw v0.0.0-20210402172934-58379a80228d
	github.com/vulkan-go/vulkan v0.0.0-20210402152248-956e3850d8f9
	golang.org/x/exp v0.0.0-20210618142145-ffcf9a09ea36 // indirect
	golang.org/x/exp/shiny v0.0.0-20220613132600-b0d781184e0d // indirect
	golang.org/x/image v0.0.0-20211028202545-6944b10bf410
	golang.org/x/mobile v0.0.0-20220224134551-8a0a1e50732f
	golang.org/x/sys v0.0.0-20220224120231-95c6836cb0e7 // indirect
	gopkg.in/check.v1 v1.0.0-20190902080502-41f04d3bba15 // indirect
	gopkg.in/yaml.v2 v2.2.8 // indirect
)

go 1.16
